module server

go 1.18

require (
	github.com/go-chi/chi/v5 v5.0.11 // indirect
	github.com/go-chi/cors v1.2.1 // indirect
	github.com/joho/godotenv v1.5.1 // indirect
	github.com/lib/pq v1.10.9 // indirect
)
